<svg width="800" height="115" viewBox="0 0 800 115" fill="none" xmlns="http://www.w3.org/2000/svg">
<path d="M88.0625 4.99999H90.0625V2.99999H88.0625V4.99999ZM88.0625 21.4792V23.4792H90.0625V21.4792H88.0625ZM54.0833 21.4792V19.4792H52.0833V21.4792H54.0833ZM54.0833 110V112H56.0833V110H54.0833ZM36.4375 110H34.4375V112H36.4375V110ZM36.4375 21.4792H38.4375V19.4792H36.4375V21.4792ZM2.45833 21.4792H0.458333V23.4792H2.45833V21.4792ZM2.45833 4.99999V2.99999H0.458333V4.99999H2.45833ZM86.0625 4.99999V21.4792H90.0625V4.99999H86.0625ZM88.0625 19.4792H54.0833V23.4792H88.0625V19.4792ZM52.0833 21.4792V110H56.0833V21.4792H52.0833ZM54.0833 108H36.4375V112H54.0833V108ZM38.4375 110V21.4792H34.4375V110H38.4375ZM36.4375 19.4792H2.45833V23.4792H36.4375V19.4792ZM4.45833 21.4792V4.99999H0.458333V21.4792H4.45833ZM2.45833 6.99999H88.0625V2.99999H2.45833V6.99999ZM127.286 107.812L126.489 109.647L127.286 107.812ZM110.661 95.125L112.231 93.8857L112.223 93.8759L112.215 93.8662L110.661 95.125ZM98.557 57.5H96.557V57.5127L96.5572 57.5253L98.557 57.5ZM110.661 19.7292L112.212 20.9915L112.222 20.98L112.231 20.9684L110.661 19.7292ZM127.286 7.18749L128.061 9.03127L128.072 9.02652L128.084 9.02163L127.286 7.18749ZM187.078 19.7292L188.627 18.4644L188.625 18.462L187.078 19.7292ZM199.182 57.5L201.182 57.5377L201.182 57.5002L201.182 57.4627L199.182 57.5ZM187.078 95.125L188.631 96.3857L188.633 96.382L187.078 95.125ZM148.87 95.5625L148.907 93.5628L148.868 93.5621L148.83 93.5629L148.87 95.5625ZM173.078 84.4792L171.486 83.2678L171.48 83.2767L171.473 83.2858L173.078 84.4792ZM173.078 30.5208L171.473 31.7142L171.488 31.735L171.504 31.7554L173.078 30.5208ZM148.87 19.4375L148.83 21.4371L148.868 21.4379L148.907 21.4372L148.87 19.4375ZM135.015 22.2083L134.203 20.3807L134.195 20.3841L134.188 20.3876L135.015 22.2083ZM124.661 30.5208L126.237 31.7521L126.257 31.7263L126.277 31.6998L124.661 30.5208ZM117.078 57.5L115.078 57.4669L115.078 57.5003L115.078 57.5336L117.078 57.5ZM124.661 84.4792L126.277 83.3002L126.266 83.2857L126.255 83.2715L124.661 84.4792ZM135.015 92.7917L134.188 94.6124L134.195 94.6159L134.203 94.6193L135.015 92.7917ZM148.87 110.188C141.449 110.188 134.528 108.78 128.084 105.978L126.489 109.647C133.461 112.678 140.929 114.188 148.87 114.188V110.188ZM128.084 105.978C121.667 103.188 116.394 99.1589 112.231 93.8857L109.091 96.3643C113.678 102.174 119.489 106.603 126.489 109.647L128.084 105.978ZM112.215 93.8662C104.683 84.5672 100.747 72.4915 100.557 57.4747L96.5572 57.5253C96.756 73.2308 100.889 86.2384 109.107 96.3838L112.215 93.8662ZM100.557 57.5C100.557 42.6032 104.487 30.4856 112.212 20.9915L109.11 18.4668C100.697 28.8061 96.557 41.869 96.557 57.5H100.557ZM112.231 20.9684C116.39 15.7006 121.655 11.7238 128.061 9.03127L126.511 5.34372C119.501 8.29003 113.683 12.6744 109.091 18.4899L112.231 20.9684ZM128.084 9.02163C134.528 6.21981 141.449 4.81249 148.87 4.81249V0.812492C140.929 0.812492 133.461 2.32184 126.489 5.35335L128.084 9.02163ZM148.87 4.81249C164.583 4.81249 176.721 10.239 185.531 20.9964L188.625 18.462C178.963 6.66372 165.628 0.812492 148.87 0.812492V4.81249ZM185.529 20.9939C192.953 30.0893 196.897 42.2085 197.182 57.5373L201.182 57.4627C200.884 41.486 196.758 28.4246 188.627 18.4644L185.529 20.9939ZM197.182 57.4623C196.897 72.5891 192.957 84.6674 185.522 93.868L188.633 96.382C196.754 86.3326 200.884 73.3275 201.182 57.5377L197.182 57.4623ZM185.525 93.8643C176.713 104.717 164.577 110.188 148.87 110.188V114.188C165.634 114.188 178.97 108.283 188.63 96.3857L185.525 93.8643ZM148.833 97.5622C159.894 97.767 168.612 93.8373 174.683 85.6726L171.473 83.2858C166.266 90.2877 158.845 93.7469 148.907 93.5628L148.833 97.5622ZM174.669 85.6905C179.981 78.7129 182.515 69.2382 182.515 57.5H178.515C178.515 68.7062 176.092 77.2176 171.486 83.2678L174.669 85.6905ZM182.515 57.5C182.515 45.5817 179.987 36.0861 174.651 29.2863L171.504 31.7554C176.086 37.5945 178.515 46.085 178.515 57.5H182.515ZM174.683 29.3274C168.612 21.1626 159.894 17.233 148.833 17.4378L148.907 21.4372C158.845 21.2531 166.266 24.7123 171.473 31.7142L174.683 29.3274ZM148.91 17.4379C143.76 17.3349 138.85 18.3152 134.203 20.3807L135.828 24.036C139.93 22.2125 144.257 21.3456 148.83 21.4371L148.91 17.4379ZM134.188 20.3876C129.614 22.4664 125.885 25.451 123.046 29.3419L126.277 31.6998C128.687 28.3963 131.861 25.8391 135.843 24.0291L134.188 20.3876ZM123.085 29.2895C117.854 35.986 115.276 45.4714 115.078 57.4669L119.078 57.5331C119.268 46.0008 121.747 37.5001 126.237 31.7521L123.085 29.2895ZM115.078 57.5336C115.277 69.3487 117.859 78.8127 123.067 85.6869L126.255 83.2715C121.741 77.3123 119.268 68.7902 119.078 57.4664L115.078 57.5336ZM123.046 85.6581C125.885 89.549 129.614 92.5336 134.188 94.6124L135.843 90.9709C131.861 89.1609 128.687 86.6037 126.277 83.3002L123.046 85.6581ZM134.203 94.6193C138.85 96.6848 143.76 97.6651 148.91 97.5621L148.83 93.5629C144.257 93.6544 139.93 92.7875 135.828 90.964L134.203 94.6193ZM271.373 54.5833V52.5833H269.373V54.5833H271.373ZM315.852 54.5833H317.852V52.5833H315.852V54.5833ZM315.852 58.0833L317.852 58.1213L317.852 58.1023V58.0833H315.852ZM303.894 94.9792L302.356 93.7004L302.339 93.7206L302.323 93.7412L303.894 94.9792ZM243.957 107.812L243.159 109.647L243.957 107.812ZM227.477 94.9792L229.071 93.7704L229.036 93.725L228.999 93.6815L227.477 94.9792ZM215.227 57.5L213.228 57.462L213.227 57.4995L213.228 57.537L215.227 57.5ZM227.477 19.875L229.031 21.1338L229.046 21.1156L229.061 21.0971L227.477 19.875ZM243.957 7.18749L243.169 5.34918L243.159 5.35335L243.957 7.18749ZM287.123 7.33333L286.294 9.15315L286.31 9.16045L286.326 9.16747L287.123 7.33333ZM303.894 19.875L305.479 18.6556L305.46 18.6302L305.439 18.6055L303.894 19.875ZM308.561 27.3125L309.388 29.1332L311.247 28.2881L310.364 26.447L308.561 27.3125ZM292.519 34.6042L291.105 36.0184L292.085 36.9984L293.347 36.4249L292.519 34.6042ZM291.352 32.8542L289.597 33.8119L289.616 33.8479L289.637 33.8831L291.352 32.8542ZM289.894 30.5208L288.299 31.7277L288.315 31.7492L288.332 31.7702L289.894 30.5208ZM279.248 22.2083L278.421 24.0291L278.428 24.0325L278.436 24.036L279.248 22.2083ZM265.686 19.4375L265.646 21.4371L265.686 21.4379L265.726 21.4371L265.686 19.4375ZM251.832 22.2083L252.624 24.0445L252.642 24.0369L252.659 24.0291L251.832 22.2083ZM241.332 30.5208L242.92 31.7366L242.931 31.722L242.942 31.7072L241.332 30.5208ZM233.894 57.5L231.894 57.4669L231.894 57.5L231.894 57.5331L233.894 57.5ZM241.332 84.4792L242.942 83.2928L242.931 83.278L242.92 83.2633L241.332 84.4792ZM251.832 92.9375L251.004 94.7582L251.021 94.7661L251.039 94.7736L251.832 92.9375ZM265.686 95.5625L265.726 93.5629L265.686 93.5621L265.646 93.5629L265.686 95.5625ZM279.248 92.7917L278.436 90.964L278.428 90.9675L278.421 90.9709L279.248 92.7917ZM289.894 84.4792L291.489 85.6861L291.5 85.6709L291.511 85.6555L289.894 84.4792ZM296.311 68.7292L298.276 69.0977L298.721 66.7292H296.311V68.7292ZM271.373 68.7292H269.373V70.7292H271.373V68.7292ZM271.373 56.5833H315.852V52.5833H271.373V56.5833ZM313.852 54.5833V58.0833H317.852V54.5833H313.852ZM313.853 58.0454C313.567 73.0811 309.674 84.901 302.356 93.7004L305.432 96.2579C313.475 86.5851 317.554 73.8078 317.852 58.1213L313.853 58.0454ZM302.323 93.7412C293.712 104.668 281.59 110.188 265.686 110.188V114.188C282.642 114.188 295.993 108.235 305.465 96.2172L302.323 93.7412ZM265.686 110.188C258.165 110.188 251.195 108.779 244.754 105.978L243.159 109.647C250.135 112.68 257.651 114.188 265.686 114.188V110.188ZM244.754 105.978C238.349 103.194 233.134 99.1266 229.071 93.7704L225.884 96.1879C230.376 102.109 236.147 106.598 243.159 109.647L244.754 105.978ZM228.999 93.6815C221.504 84.8911 217.513 72.8899 217.227 57.463L213.228 57.537C213.525 73.6101 217.7 86.595 225.955 96.2768L228.999 93.6815ZM217.227 57.538C217.512 42.5179 221.496 30.437 229.031 21.1338L225.923 18.6162C217.709 28.7574 213.526 41.7598 213.228 57.462L217.227 57.538ZM229.061 21.0971C233.123 15.8346 238.341 11.8101 244.754 9.02163L243.159 5.35335C236.156 8.39824 230.387 12.8321 225.894 18.6529L229.061 21.0971ZM244.744 9.02578C251.292 6.2198 258.266 4.81249 265.686 4.81249V0.812492C257.745 0.812492 250.232 2.32185 243.169 5.3492L244.744 9.02578ZM265.686 4.81249C273.097 4.81249 279.958 6.26472 286.294 9.15315L287.953 5.51352C281.066 2.37416 273.636 0.812492 265.686 0.812492V4.81249ZM286.326 9.16747C292.755 11.9628 298.085 15.9543 302.349 21.1445L305.439 18.6055C300.758 12.9068 294.908 8.53719 287.921 5.49919L286.326 9.16747ZM302.309 21.0944C304.183 23.5315 305.661 25.8929 306.758 28.178L310.364 26.447C309.127 23.871 307.493 21.2741 305.479 18.6556L302.309 21.0944ZM307.733 25.4918L291.691 32.7834L293.347 36.4249L309.388 29.1332L307.733 25.4918ZM293.933 33.19C293.984 33.2404 293.989 33.2549 293.937 33.1854C293.893 33.1275 293.83 33.0386 293.746 32.9114C293.576 32.6571 293.351 32.2984 293.067 31.8252L289.637 33.8831C289.937 34.3821 290.198 34.8012 290.417 35.1302C290.607 35.4142 290.85 35.764 291.105 36.0184L293.933 33.19ZM293.108 31.8965C292.511 30.8019 291.958 29.8988 291.456 29.2714L288.332 31.7702C288.608 32.1151 289.027 32.7675 289.597 33.8119L293.108 31.8965ZM291.489 29.3139C288.55 25.4304 284.725 22.4538 280.06 20.3807L278.436 24.036C282.521 25.8517 285.794 28.4168 288.299 31.7277L291.489 29.3139ZM280.076 20.3876C275.522 18.3175 270.704 17.3347 265.645 17.4379L265.726 21.4371C270.196 21.3459 274.419 22.2102 278.421 24.0291L280.076 20.3876ZM265.725 17.4379C260.485 17.3351 255.569 18.3127 251.004 20.3876L252.659 24.0291C256.65 22.2151 260.97 21.3454 265.646 21.4371L265.725 17.4379ZM251.039 20.3722C246.441 22.3576 242.657 25.3503 239.721 29.3344L242.942 31.7072C245.45 28.3025 248.666 25.7535 252.624 24.0445L251.039 20.3722ZM239.743 29.305C234.618 35.9995 232.092 45.4785 231.894 57.4669L235.894 57.5331C236.084 45.9937 238.517 37.4866 242.92 31.7366L239.743 29.305ZM231.894 57.5331C232.092 69.5215 234.618 79.0005 239.743 85.695L242.92 83.2633C238.517 77.5134 236.084 69.0063 235.894 57.4669L231.894 57.5331ZM239.721 85.6656C242.651 89.6415 246.423 92.6761 251.004 94.7582L252.659 91.1168C248.684 89.31 245.456 86.7057 242.942 83.2928L239.721 85.6656ZM251.039 94.7736C255.596 96.7414 260.499 97.6646 265.725 97.5621L265.646 93.5629C260.955 93.6549 256.623 92.8281 252.624 91.1014L251.039 94.7736ZM265.645 97.5621C270.704 97.6653 275.522 96.6825 280.076 94.6124L278.421 90.9709C274.419 92.7898 270.196 93.6541 265.726 93.5629L265.645 97.5621ZM280.06 94.6193C284.725 92.5462 288.55 89.5696 291.489 85.6861L288.299 83.2723C285.794 86.5831 282.521 89.1483 278.436 90.964L280.06 94.6193ZM291.511 85.6555C294.828 81.095 297.066 75.555 298.276 69.0977L294.345 68.3606C293.222 74.3477 291.182 79.3078 288.277 83.3028L291.511 85.6555ZM296.311 66.7292H271.373V70.7292H296.311V66.7292ZM273.373 68.7292V54.5833H269.373V68.7292H273.373ZM402.764 21.4792V23.4792H404.764V21.4792H402.764ZM352.743 21.4792V19.4792H350.743V21.4792H352.743ZM352.743 49.1875H350.743V51.1875H352.743V49.1875ZM394.014 49.1875H396.014V47.1875H394.014V49.1875ZM394.014 65.6667V67.6667H396.014V65.6667H394.014ZM352.743 65.6667V63.6667H350.743V65.6667H352.743ZM352.743 93.5208H350.743V95.5208H352.743V93.5208ZM402.764 93.5208H404.764V91.5208H402.764V93.5208ZM402.764 110V112H404.764V110H402.764ZM335.243 110H333.243V112H335.243V110ZM335.243 4.99999V2.99999H333.243V4.99999H335.243ZM402.764 4.99999H404.764V2.99999H402.764V4.99999ZM402.764 19.4792H352.743V23.4792H402.764V19.4792ZM350.743 21.4792V49.1875H354.743V21.4792H350.743ZM352.743 51.1875H394.014V47.1875H352.743V51.1875ZM392.014 49.1875V65.6667H396.014V49.1875H392.014ZM394.014 63.6667H352.743V67.6667H394.014V63.6667ZM350.743 65.6667V93.5208H354.743V65.6667H350.743ZM352.743 95.5208H402.764V91.5208H352.743V95.5208ZM400.764 93.5208V110H404.764V93.5208H400.764ZM402.764 108H335.243V112H402.764V108ZM337.243 110V4.99999H333.243V110H337.243ZM335.243 6.99999H402.764V2.99999H335.243V6.99999ZM400.764 4.99999V21.4792H404.764V4.99999H400.764ZM502.107 4.99999H504.107V2.99999H502.107V4.99999ZM502.107 21.4792V23.4792H504.107V21.4792H502.107ZM468.128 21.4792V19.4792H466.128V21.4792H468.128ZM468.128 110V112H470.128V110H468.128ZM450.482 110H448.482V112H450.482V110ZM450.482 21.4792H452.482V19.4792H450.482V21.4792ZM416.503 21.4792H414.503V23.4792H416.503V21.4792ZM416.503 4.99999V2.99999H414.503V4.99999H416.503ZM500.107 4.99999V21.4792H504.107V4.99999H500.107ZM502.107 19.4792H468.128V23.4792H502.107V19.4792ZM466.128 21.4792V110H470.128V21.4792H466.128ZM468.128 108H450.482V112H468.128V108ZM452.482 110V21.4792H448.482V110H452.482ZM450.482 19.4792H416.503V23.4792H450.482V19.4792ZM418.503 21.4792V4.99999H414.503V21.4792H418.503ZM416.503 6.99999H502.107V2.99999H416.503V6.99999ZM583.039 4.99999V2.99999H581.039V4.99999H583.039ZM600.685 4.99999H602.685V2.99999H600.685V4.99999ZM600.685 110V112H602.685V110H600.685ZM583.039 110H581.039V112H583.039V110ZM583.039 73.3958H585.039V71.3958H583.039V73.3958ZM533.31 73.3958V71.3958H531.31V73.3958H533.31ZM533.31 110V112H535.31V110H533.31ZM515.81 110H513.81V112H515.81V110ZM515.81 4.99999V2.99999H513.81V4.99999H515.81ZM533.31 4.99999H535.31V2.99999H533.31V4.99999ZM533.31 56.9167H531.31V58.9167H533.31V56.9167ZM583.039 56.9167V58.9167H585.039V56.9167H583.039ZM583.039 6.99999H600.685V2.99999H583.039V6.99999ZM598.685 4.99999V110H602.685V4.99999H598.685ZM600.685 108H583.039V112H600.685V108ZM585.039 110V73.3958H581.039V110H585.039ZM583.039 71.3958H533.31V75.3958H583.039V71.3958ZM531.31 73.3958V110H535.31V73.3958H531.31ZM533.31 108H515.81V112H533.31V108ZM517.81 110V4.99999H513.81V110H517.81ZM515.81 6.99999H533.31V2.99999H515.81V6.99999ZM531.31 4.99999V56.9167H535.31V4.99999H531.31ZM533.31 58.9167H583.039V54.9167H533.31V58.9167ZM585.039 56.9167V4.99999H581.039V56.9167H585.039ZM690.704 21.4792V23.4792H692.704V21.4792H690.704ZM640.683 21.4792V19.4792H638.683V21.4792H640.683ZM640.683 49.1875H638.683V51.1875H640.683V49.1875ZM681.954 49.1875H683.954V47.1875H681.954V49.1875ZM681.954 65.6667V67.6667H683.954V65.6667H681.954ZM640.683 65.6667V63.6667H638.683V65.6667H640.683ZM640.683 93.5208H638.683V95.5208H640.683V93.5208ZM690.704 93.5208H692.704V91.5208H690.704V93.5208ZM690.704 110V112H692.704V110H690.704ZM623.183 110H621.183V112H623.183V110ZM623.183 4.99999V2.99999H621.183V4.99999H623.183ZM690.704 4.99999H692.704V2.99999H690.704V4.99999ZM690.704 19.4792H640.683V23.4792H690.704V19.4792ZM638.683 21.4792V49.1875H642.683V21.4792H638.683ZM640.683 51.1875H681.954V47.1875H640.683V51.1875ZM679.954 49.1875V65.6667H683.954V49.1875H679.954ZM681.954 63.6667H640.683V67.6667H681.954V63.6667ZM638.683 65.6667V93.5208H642.683V65.6667H638.683ZM640.683 95.5208H690.704V91.5208H640.683V95.5208ZM688.704 93.5208V110H692.704V93.5208H688.704ZM690.704 108H623.183V112H690.704V108ZM625.183 110V4.99999H621.183V110H625.183ZM623.183 6.99999H690.704V2.99999H623.183V6.99999ZM688.704 4.99999V21.4792H692.704V4.99999H688.704ZM796.173 110V112H799.373L797.97 109.124L796.173 110ZM776.193 110L774.393 110.871L774.94 112H776.193V110ZM758.402 73.25L760.202 72.3785L759.656 71.25H758.402V73.25ZM730.693 73.25V71.25H728.693V73.25H730.693ZM730.693 110V112H732.693V110H730.693ZM713.193 110H711.193V112H713.193V110ZM713.193 4.99999V2.99999H711.193V4.99999H713.193ZM770.798 6.75L770.149 8.64189L770.181 8.65284L770.213 8.6627L770.798 6.75ZM787.131 18.2708L785.494 19.4197L785.528 19.468L785.564 19.5141L787.131 18.2708ZM794.714 39.125H796.714V39.1L796.714 39.075L794.714 39.125ZM787.423 59.8333L785.837 58.6139L785.83 58.6236L785.823 58.6333L787.423 59.8333ZM776.339 69.3125L775.384 67.5553L773.703 68.4689L774.542 70.1888L776.339 69.3125ZM730.693 21.625V19.625H728.693V21.625H730.693ZM730.693 56.7708H728.693V58.7708H730.693V56.7708ZM773.131 49.9167L774.719 51.1328L774.728 51.1211L774.737 51.1093L773.131 49.9167ZM776.777 39.125L778.776 39.0737L778.776 39.0568L778.775 39.04L776.777 39.125ZM772.402 27.4583L773.927 26.1644L773.899 26.1317L773.87 26.1002L772.402 27.4583ZM796.173 108H776.193V112H796.173V108ZM777.994 109.129L760.202 72.3785L756.602 74.1215L774.393 110.871L777.994 109.129ZM758.402 71.25H730.693V75.25H758.402V71.25ZM728.693 73.25V110H732.693V73.25H728.693ZM730.693 108H713.193V112H730.693V108ZM715.193 110V4.99999H711.193V110H715.193ZM713.193 6.99999H760.152V2.99999H713.193V6.99999ZM760.152 6.99999C763.632 6.99999 766.961 7.54873 770.149 8.64189L771.446 4.85811C767.829 3.61792 764.061 2.99999 760.152 2.99999V6.99999ZM770.213 8.6627C776.824 10.6826 781.882 14.2731 785.494 19.4197L788.768 17.122C784.602 11.1852 778.771 7.09514 771.382 4.83729L770.213 8.6627ZM785.564 19.5141C790.157 25.3008 792.531 31.8338 792.715 39.175L796.714 39.075C796.508 30.8606 793.827 23.4909 788.698 17.0275L785.564 19.5141ZM792.714 39.125C792.714 46.1403 790.448 52.6198 785.837 58.6139L789.008 61.0527C794.119 54.408 796.714 47.0819 796.714 39.125H792.714ZM785.823 58.6333C783.087 62.2815 779.616 65.2553 775.384 67.5553L777.294 71.0697C782.007 68.5086 785.925 65.163 789.023 61.0333L785.823 58.6333ZM774.542 70.1888L794.375 110.876L797.97 109.124L778.137 68.4362L774.542 70.1888ZM728.693 21.625V56.7708H732.693V21.625H728.693ZM730.693 58.7708H760.006V54.7708H730.693V58.7708ZM760.006 58.7708C765.944 58.7708 770.882 56.1416 774.719 51.1328L771.543 48.7005C768.38 52.8306 764.568 54.7708 760.006 54.7708V58.7708ZM774.737 51.1093C777.498 47.3922 778.886 43.3649 778.776 39.0737L774.777 39.1763C774.862 42.4684 773.82 45.6356 771.526 48.724L774.737 51.1093ZM778.775 39.04C778.563 34.0673 776.962 29.742 773.927 26.1644L770.877 28.7523C773.286 31.5914 774.601 35.0438 774.779 39.21L778.775 39.04ZM773.87 26.1002C769.951 21.8631 765.308 19.625 760.006 19.625V23.625C764.037 23.625 767.659 25.2758 770.934 28.8164L773.87 26.1002ZM760.006 19.625H730.693V23.625H760.006V19.625Z" fill="white"/>
</svg>
