<svg width="107" height="32" viewBox="0 0 107 32" fill="none" xmlns="http://www.w3.org/2000/svg">
<path d="M16.0779 0.0527344C7.22519 0.0527344 0.0483398 7.19426 0.0483398 16.0036C0.0483398 24.8133 7.22519 31.9543 16.0779 31.9543C24.9315 31.9543 32.1076 24.8133 32.1076 16.0036C32.1076 7.19483 24.9315 0.0534963 16.0777 0.0534963L16.0779 0.0527344ZM23.4289 23.0584C23.1418 23.527 22.5254 23.6756 22.0545 23.388C18.291 21.1004 13.5531 20.5823 7.97342 21.8508C7.43574 21.9727 6.89979 21.6375 6.77728 21.1023C6.6542 20.567 6.98975 20.0337 7.52877 19.9118C13.6349 18.5236 18.8725 19.1213 23.0977 21.6908C23.5686 21.9784 23.7179 22.5899 23.4289 23.0584ZM25.3909 18.7152C25.0291 19.3004 24.2596 19.4851 23.672 19.1251C19.3633 16.4897 12.7953 15.7264 7.69894 17.2659C7.03799 17.4645 6.3399 17.0939 6.1393 16.4373C5.94023 15.7796 6.31291 15.0863 6.97271 14.8863C12.7942 13.1285 20.0313 13.98 24.9793 17.0057C25.567 17.3657 25.7526 18.1314 25.3909 18.7154V18.7152ZM25.5593 14.1925C20.3931 11.139 11.8694 10.8583 6.93692 12.348C6.14485 12.587 5.30723 12.1421 5.0672 11.3539C4.82716 10.5653 5.27392 9.73235 6.06656 9.49273C11.7288 7.78226 21.1415 8.11273 27.0895 11.6264C27.8035 12.0472 28.037 12.9628 27.614 13.6708C27.1928 14.3798 26.2702 14.6135 25.5601 14.1925H25.5593ZM43.6594 14.7777C40.8915 14.1209 40.3996 13.66 40.3996 12.6914C40.3996 11.7764 41.2648 11.1605 42.553 11.1605C43.801 11.1605 45.0375 11.6282 46.3353 12.5908C46.3736 12.62 46.4234 12.6316 46.4712 12.624C46.521 12.6167 46.5631 12.5903 46.5918 12.5504L47.9432 10.6548C47.9987 10.5767 47.9834 10.4691 47.9087 10.4095C46.364 9.17654 44.626 8.57712 42.5932 8.57712C39.6052 8.57712 37.5169 10.3617 37.5169 12.915C37.5169 15.6531 39.3181 16.6226 42.4305 17.371C45.0777 17.9781 45.5256 18.4866 45.5256 19.3956C45.5256 20.4032 44.6222 21.0299 43.1674 21.0299C41.5519 21.0299 40.2331 20.487 38.7592 19.2184C38.7228 19.1861 38.673 19.1727 38.6271 19.1746C38.5773 19.1784 38.5333 19.2013 38.5027 19.2375L36.9867 21.0318C36.9235 21.108 36.9312 21.2184 37.0039 21.2832C38.719 22.807 40.8284 23.6108 43.1062 23.6108C46.3257 23.6108 48.4064 21.8604 48.4064 19.1499C48.4122 16.8628 47.0359 15.5962 43.6651 14.7802L43.6594 14.7777ZM55.6916 12.0615C54.2962 12.0615 53.1515 12.6085 52.206 13.7295V12.4678C52.206 12.3682 52.1256 12.287 52.026 12.287H49.5472C49.4477 12.287 49.3673 12.3682 49.3673 12.4678V26.487C49.3673 26.5861 49.4477 26.668 49.5472 26.668H52.026C52.1256 26.668 52.206 26.5861 52.206 26.487V22.0623C53.1515 23.1156 54.2962 23.6318 55.6916 23.6318C58.2853 23.6318 60.9114 21.6451 60.9114 17.8472C60.9153 14.0485 58.2891 12.0613 55.6935 12.0613L55.6916 12.0615ZM58.0288 17.8472C58.0288 19.7804 56.8324 21.1308 55.1174 21.1308C53.4234 21.1308 52.1447 19.7194 52.1447 17.8472C52.1447 15.9748 53.4234 14.5638 55.1174 14.5638C56.8037 14.5636 58.0288 15.9442 58.0288 17.847V17.8472ZM67.6396 12.0615C64.2995 12.0615 61.6828 14.6207 61.6828 17.8885C61.6828 21.1213 64.2822 23.6527 67.5994 23.6527C70.9511 23.6527 73.5753 21.1023 73.5753 17.8472C73.5753 14.6032 70.9683 12.0619 67.6396 12.0619V12.0615ZM67.6396 21.1499C65.8633 21.1499 64.5234 19.7289 64.5234 17.8463C64.5234 15.955 65.8174 14.5826 67.5994 14.5826C69.3872 14.5826 70.7348 16.003 70.7348 17.8876C70.7348 19.7785 69.4332 21.1499 67.6396 21.1499ZM80.7074 12.287H77.9798V9.51254C77.9798 9.41312 77.8994 9.33197 77.7998 9.33197H75.321C75.2215 9.33197 75.1392 9.41312 75.1392 9.51254V12.287H73.9486C73.8491 12.287 73.7687 12.3682 73.7687 12.4678V14.5872C73.7687 14.6866 73.8491 14.768 73.9486 14.768H75.1392V20.2527C75.1392 22.468 76.2475 23.5918 78.4353 23.5918C79.3235 23.5918 80.0604 23.4089 80.7553 23.0165C80.8127 22.9861 80.8471 22.9251 80.8471 22.8604V20.8413C80.8471 20.7804 80.8146 20.7213 80.761 20.6889C80.7074 20.6546 80.6404 20.6527 80.5849 20.6813C80.1083 20.9194 79.647 21.0299 79.1301 21.0299C78.3358 21.0299 77.9798 20.6699 77.9798 19.8661V14.7689H80.7074C80.8069 14.7689 80.8873 14.6878 80.8873 14.5882V12.4689C80.8912 12.3693 80.8108 12.2882 80.7093 12.2882L80.7074 12.287ZM90.2092 12.2979V11.9571C90.2092 10.9546 90.5958 10.5076 91.461 10.5076C91.9778 10.5076 92.3932 10.6097 92.8583 10.764C92.9157 10.7819 92.9751 10.7729 93.021 10.7388C93.0689 10.7047 93.0957 10.6501 93.0957 10.5922V8.51407C93.0957 8.43464 93.0459 8.36435 92.9674 8.34093C92.4774 8.19559 91.8496 8.04645 90.9078 8.04645C88.6204 8.04645 87.4088 9.32911 87.4088 11.7544V12.2764H86.2182C86.1187 12.2764 86.0363 12.3575 86.0363 12.4569V14.5872C86.0363 14.6866 86.1187 14.768 86.2182 14.768H87.4088V23.2261C87.4088 23.327 87.4911 23.407 87.5906 23.407H90.0675C90.169 23.407 90.2493 23.327 90.2493 23.2261V14.7685H92.5635L96.1085 23.2261C95.7065 24.1137 95.3103 24.2908 94.7705 24.2908C94.3341 24.2908 93.8728 24.1613 93.4038 23.9042C93.3598 23.8813 93.3062 23.8775 93.2603 23.8908C93.2124 23.908 93.1722 23.9423 93.1531 23.988L92.3128 25.8223C92.2726 25.9099 92.307 26.0108 92.3913 26.0565C93.2679 26.5289 94.0585 26.7308 95.0366 26.7308C96.8665 26.7308 97.8791 25.8813 98.7691 23.5994L103.068 12.5447C103.091 12.4891 103.084 12.4263 103.049 12.3769C103.017 12.328 102.961 12.2984 102.902 12.2984H100.322C100.243 12.2984 100.174 12.3474 100.149 12.4196L97.5058 19.9308L94.6117 12.4146C94.5849 12.3447 94.5179 12.2984 94.4432 12.2984H90.2092V12.2979ZM84.7003 12.287H82.2215C82.1219 12.287 82.0396 12.3682 82.0396 12.4678V23.2261C82.0396 23.327 82.1219 23.407 82.2215 23.407H84.7003C84.7998 23.407 84.8821 23.327 84.8821 23.2261V12.4685C84.8821 12.3689 84.8017 12.2878 84.7003 12.2878V12.287ZM83.4752 7.38816C82.4933 7.38816 81.697 8.17902 81.697 9.15597C81.697 10.1335 82.4933 10.9253 83.4752 10.9253C84.4572 10.9253 85.2515 10.1335 85.2515 9.15597C85.2515 8.17921 84.4553 7.38816 83.4752 7.38816ZM105.185 15.7463C104.205 15.7463 103.442 14.9624 103.442 14.0106C103.442 13.0588 104.215 12.2661 105.195 12.2661C106.175 12.2661 106.939 13.0497 106.939 14.0007C106.939 14.9525 106.165 15.7463 105.185 15.7463ZM105.195 12.4386C104.301 12.4386 103.625 13.1453 103.625 14.0106C103.625 14.8756 104.297 15.5727 105.185 15.5727C106.079 15.5727 106.755 14.8666 106.755 14.0007C106.755 13.1358 106.083 12.4386 105.195 12.4386ZM105.582 14.1792L106.075 14.8664H105.658L105.214 14.236H104.833V14.8664H104.485V13.0447H105.3C105.727 13.0447 106.006 13.2613 106.006 13.6259C106.008 13.9245 105.834 14.107 105.583 14.1792H105.582ZM105.287 13.3573H104.833V13.9335H105.287C105.513 13.9335 105.649 13.8232 105.649 13.6451C105.649 13.4577 105.513 13.3573 105.287 13.3573Z" fill="#2F2F2F"/>
</svg>
