<svg width="77" height="30" viewBox="0 0 77 30" fill="none" xmlns="http://www.w3.org/2000/svg">
<g clip-path="url(#clip0)">
<path d="M28.9165 30C26.728 29.9076 24.7781 28.8714 23.7928 26.5732C21.1273 20.3659 18.5136 14.1484 15.9621 7.90012C14.7383 4.90422 16.2422 1.64157 19.2189 0.441156C22.1126 -0.728474 25.5249 0.543755 26.7799 3.45757C29.4558 9.65456 32.0902 15.8721 34.6106 22.1306C36.156 25.9371 33.283 30.0102 28.9165 30Z" fill="white"/>
<path d="M13.3897 29.9994C11.1909 29.9173 9.24103 28.8708 8.24534 26.5828C5.59017 20.3756 2.97649 14.1581 0.425031 7.89953C-0.798837 4.90363 0.705068 1.64098 3.68176 0.430309C6.57549 -0.749581 9.9878 0.522649 11.2532 3.43647C13.9394 9.66424 16.5946 15.9125 19.1046 22.2121C20.6085 25.9878 17.7044 29.9994 13.3897 29.9994Z" fill="white"/>
<path d="M38.697 16.0773C36.436 16.0054 34.538 14.9179 33.4697 12.6197C32.754 11.0807 32.111 9.51091 31.5094 7.93089C30.3581 4.90421 31.7583 1.6826 34.7246 0.451406C37.5976 -0.749004 40.9581 0.523225 42.3064 3.396C43.0739 5.01707 43.7792 6.67917 44.3808 8.37206C45.7291 12.1272 42.9495 16.0465 38.697 16.0773Z" fill="white"/>
<path d="M51.6514 1.17987H52.2218L51.2676 4.95552H50.6142L49.8571 1.84677L49.1311 4.95552H48.4776L47.5027 1.17987H48.0939L48.8303 4.36044L49.5356 1.17987H50.1682L50.9254 4.36044L51.6514 1.17987Z" fill="white"/>
<path d="M54.12 1.17987L55.5617 4.95552H54.9809L54.6801 4.13473H52.9169L52.6161 4.95552H52.0664L53.4873 1.17987H54.12ZM54.5038 3.68329L53.7881 1.71339L53.0828 3.68329H54.5038Z" fill="white"/>
<path d="M57.3765 3.36523H57.2313H56.5572V4.95552H56.0178V1.17987H57.2313C57.4595 1.17987 57.6773 1.19013 57.8744 1.22091C58.0714 1.25169 58.2374 1.30299 58.3826 1.38507C58.5278 1.46715 58.6315 1.58001 58.7145 1.72365C58.7975 1.86729 58.8286 2.05196 58.8286 2.27768C58.8286 2.57522 58.756 2.80094 58.6211 2.9651C58.4863 3.119 58.2996 3.23186 58.0611 3.29341L58.953 4.97604H58.3515L57.5217 3.37549C57.4699 3.36523 57.418 3.36523 57.3765 3.36523ZM56.5572 2.9138H57.2728C57.418 2.9138 57.5425 2.90354 57.6669 2.89328C57.7914 2.88302 57.8951 2.85224 57.9885 2.8112C58.0818 2.77016 58.144 2.69834 58.1959 2.61626C58.2478 2.53418 58.2685 2.41106 58.2685 2.26742C58.2685 2.12378 58.2478 2.00066 58.1959 1.91859C58.144 1.83651 58.0714 1.76469 57.9885 1.72365C57.9055 1.68261 57.7914 1.65183 57.6669 1.64157C57.5425 1.63131 57.418 1.62105 57.2728 1.62105H56.5572V2.9138Z" fill="white"/>
<path d="M60.2495 1.73391V4.96578H59.7102V1.17987H60.4985L62.2513 4.40148V1.17987H62.7906V4.95552H62.0024L60.2495 1.73391Z" fill="white"/>
<path d="M66.2964 1.17987V1.64157H64.2324V2.79068H66.172V3.25237H64.2324V4.50408H66.2964V4.96578H63.6931V1.17987H66.2964Z" fill="white"/>
<path d="M68.2981 3.36523H68.1529H67.4788V4.95552H66.9395V1.17987H68.1529C68.3811 1.17987 68.5989 1.19013 68.796 1.22091C68.9931 1.25169 69.159 1.30299 69.3042 1.38507C69.4494 1.46715 69.5531 1.58001 69.6361 1.72365C69.7191 1.86729 69.7502 2.05196 69.7502 2.27768C69.7502 2.57522 69.6776 2.80094 69.5428 2.9651C69.4079 3.119 69.2212 3.23186 68.9827 3.29341L69.8747 4.97604H69.2731L68.4434 3.37549C68.4019 3.36523 68.35 3.36523 68.2981 3.36523ZM67.4788 2.9138H68.1944C68.3396 2.9138 68.4641 2.90354 68.5886 2.89328C68.713 2.88302 68.8167 2.85224 68.9101 2.8112C69.0034 2.77016 69.0657 2.69834 69.1175 2.61626C69.1694 2.53418 69.1901 2.41106 69.1901 2.26742C69.1901 2.12378 69.1694 2.00066 69.1175 1.91859C69.0657 1.83651 68.9931 1.76469 68.9101 1.72365C68.8271 1.68261 68.713 1.65183 68.5886 1.64157C68.4641 1.63131 68.3396 1.62105 68.1944 1.62105H67.4788V2.9138Z" fill="white"/>
<path d="M49.8467 8.32074H49.7015H49.0274V9.91103H48.488V6.13538H49.7015C49.9297 6.13538 50.1475 6.14564 50.3446 6.17642C50.5417 6.2072 50.7076 6.2585 50.8528 6.34057C50.998 6.42265 51.1017 6.53551 51.1847 6.67915C51.2677 6.82279 51.2988 7.00747 51.2988 7.23319C51.2988 7.53073 51.2262 7.75644 51.0914 7.9206C50.9565 8.0745 50.7698 8.18736 50.5313 8.24892L51.4233 9.93155H50.8217L49.992 8.331C49.9401 8.32074 49.8882 8.32074 49.8467 8.32074ZM49.017 7.8693H49.7327C49.8779 7.8693 50.0023 7.85904 50.1268 7.84878C50.2512 7.83852 50.355 7.80774 50.4483 7.7667C50.5417 7.72566 50.6039 7.65384 50.6558 7.57177C50.7076 7.48969 50.7284 7.36657 50.7284 7.22293C50.7284 7.07929 50.7076 6.95617 50.6558 6.87409C50.6039 6.79201 50.5313 6.72019 50.4483 6.67915C50.3653 6.63811 50.2512 6.60733 50.1268 6.59707C50.0023 6.58681 49.8779 6.57655 49.7327 6.57655H49.017V7.8693Z" fill="white"/>
<path d="M54.6697 6.13538V6.59707H52.6057V7.74618H54.5453V8.20788H52.6057V9.45959H54.6697V9.92129H52.0664V6.13538H54.6697Z" fill="white"/>
<path d="M58.3101 9.25443C58.2064 9.40833 58.0923 9.54171 57.9471 9.65457C57.8019 9.75717 57.6359 9.83925 57.4596 9.90081C57.2729 9.95211 57.0759 9.98289 56.8684 9.98289C56.5884 9.98289 56.3498 9.93159 56.132 9.83925C55.9142 9.74691 55.7379 9.60327 55.5823 9.42885C55.4371 9.25443 55.323 9.04923 55.2401 8.81326C55.1675 8.57728 55.126 8.31052 55.126 8.02324C55.126 7.73596 55.1675 7.46921 55.2504 7.22297C55.3334 6.97673 55.4579 6.78179 55.6135 6.60737C55.769 6.43296 55.9557 6.30984 56.1735 6.20724C56.3913 6.10464 56.6403 6.0636 56.9099 6.0636C57.107 6.0636 57.2937 6.09438 57.47 6.14568C57.6463 6.20724 57.8019 6.28932 57.9471 6.39192C58.0819 6.50478 58.2064 6.62789 58.2997 6.79205C58.3931 6.94595 58.4657 7.13063 58.5072 7.33583H57.9886C57.9575 7.21271 57.916 7.11011 57.8537 7.00751C57.7915 6.90491 57.7189 6.82283 57.6256 6.75101C57.5322 6.67919 57.4285 6.61763 57.304 6.57659C57.1796 6.53555 57.0448 6.51504 56.8892 6.51504C56.7232 6.51504 56.5573 6.54582 56.4121 6.60737C56.2669 6.66893 56.1424 6.77153 56.0283 6.89465C55.9142 7.01777 55.8313 7.18193 55.769 7.36661C55.7068 7.55129 55.6757 7.76674 55.6757 8.01298C55.6757 8.24896 55.7068 8.46442 55.769 8.65936C55.8313 8.84404 55.9142 9.00819 56.0179 9.14157C56.132 9.27495 56.2565 9.36729 56.4017 9.43911C56.5469 9.51093 56.7129 9.54171 56.8892 9.54171C57.2003 9.54171 57.4389 9.46989 57.6256 9.31599C57.8123 9.16209 57.9367 8.96716 57.9886 8.72092H58.5072C58.4864 8.91586 58.4138 9.10053 58.3101 9.25443Z" fill="white"/>
<path d="M62.438 8.80299C62.3551 9.03897 62.2306 9.25443 62.075 9.41859C61.9194 9.59301 61.7328 9.72639 61.5046 9.82898C61.2868 9.92132 61.0378 9.97262 60.7578 9.97262C60.4778 9.97262 60.2392 9.92132 60.011 9.82898C59.7932 9.73665 59.5962 9.59301 59.4406 9.41859C59.285 9.24417 59.1606 9.03897 59.0776 8.80299C58.9946 8.56702 58.9531 8.30026 58.9531 8.01298C58.9531 7.7257 58.9946 7.46921 59.0776 7.22297C59.1606 6.98699 59.285 6.78179 59.4406 6.60737C59.5962 6.43296 59.7829 6.29958 60.011 6.20724C60.2288 6.1149 60.4778 6.0636 60.7578 6.0636C61.0378 6.0636 61.2764 6.1149 61.5046 6.20724C61.7224 6.29958 61.9194 6.44322 62.075 6.60737C62.2306 6.78179 62.3551 6.98699 62.438 7.22297C62.521 7.45895 62.5625 7.7257 62.5625 8.01298C62.5625 8.30026 62.521 8.56702 62.438 8.80299ZM59.6065 8.66961C59.6688 8.85429 59.7621 9.01845 59.8658 9.14157C59.9696 9.26469 60.1044 9.36729 60.26 9.42885C60.4155 9.49041 60.5711 9.53145 60.7474 9.53145C60.9238 9.53145 61.0793 9.50067 61.2349 9.42885C61.3905 9.36729 61.5253 9.26469 61.629 9.14157C61.7431 9.00819 61.8261 8.85429 61.8883 8.66961C61.9506 8.48494 61.9817 8.26948 61.9817 8.02324C61.9817 7.777 61.9506 7.56155 61.8883 7.37687C61.8261 7.19219 61.7328 7.02803 61.629 6.90491C61.515 6.78179 61.3905 6.67919 61.2349 6.61763C61.0793 6.55607 60.9238 6.51503 60.7474 6.51503C60.5711 6.51503 60.4052 6.54581 60.26 6.61763C60.1044 6.67919 59.9799 6.78179 59.8658 6.90491C59.7518 7.02803 59.6688 7.19219 59.6065 7.37687C59.5443 7.56155 59.5132 7.777 59.5132 8.02324C59.5132 8.26948 59.5443 8.47468 59.6065 8.66961Z" fill="white"/>
<path d="M64.6473 8.32074H64.5021H63.8279V9.91103H63.2886V6.13538H64.5021C64.7302 6.13538 64.948 6.14564 65.1451 6.17642C65.3422 6.2072 65.5081 6.2585 65.6533 6.34057C65.7985 6.42265 65.9023 6.53551 65.9852 6.67915C66.0682 6.82279 66.0993 7.00747 66.0993 7.23319C66.0993 7.53073 66.0267 7.75644 65.8919 7.9206C65.757 8.0745 65.5704 8.18736 65.3318 8.24892L66.2238 9.93155H65.6222L64.7925 8.331C64.7406 8.32074 64.6888 8.32074 64.6473 8.32074ZM63.8175 7.8693H64.5332C64.6784 7.8693 64.8028 7.85904 64.9273 7.84878C65.0518 7.83852 65.1555 7.80774 65.2488 7.7667C65.3422 7.72566 65.4044 7.65384 65.4563 7.57177C65.5081 7.48969 65.5289 7.36657 65.5289 7.22293C65.5289 7.07929 65.5081 6.95617 65.4563 6.87409C65.4044 6.79201 65.3318 6.72019 65.2488 6.67915C65.1659 6.63811 65.0518 6.60733 64.9273 6.59707C64.8028 6.58681 64.6784 6.57655 64.5332 6.57655H63.8175V7.8693Z" fill="white"/>
<path d="M68.7544 6.22772C69.0137 6.28927 69.2315 6.39187 69.4181 6.53551C69.6048 6.67915 69.75 6.87409 69.8538 7.12033C69.9575 7.36657 70.0093 7.6641 70.0093 8.0232C70.0093 8.3823 69.9575 8.69009 69.8538 8.92607C69.75 9.17231 69.6048 9.35699 69.4181 9.51089C69.2315 9.65452 69.0137 9.75712 68.7544 9.81868C68.4951 9.88024 68.215 9.91102 67.9142 9.91102H66.8667V6.13538H67.9142C68.2254 6.13538 68.5054 6.16616 68.7544 6.22772ZM69.3248 7.25371C69.2418 7.05877 69.1174 6.91513 68.9722 6.82279C68.827 6.72019 68.661 6.65863 68.4743 6.62785C68.2876 6.59707 68.0906 6.58681 67.8935 6.58681H67.406V9.46985H67.8935C68.0906 9.46985 68.2876 9.45959 68.4743 9.42881C68.661 9.39803 68.827 9.33647 68.9722 9.23387C69.1174 9.13127 69.2315 8.98763 69.3248 8.80295C69.4182 8.61827 69.4596 8.36178 69.4596 8.03346C69.4596 7.69488 69.4078 7.43838 69.3248 7.25371Z" fill="white"/>
<path d="M73.2246 6.13538V6.59707H71.1607V7.74618H73.1002V8.20788H71.1607V9.45959H73.2246V9.92129H70.6213V6.13538H73.2246Z" fill="white"/>
<path d="M75.7451 6.22772C76.0044 6.28927 76.2222 6.39187 76.4089 6.53551C76.5956 6.67915 76.7408 6.87409 76.8445 7.12033C76.9482 7.36657 77.0001 7.6641 77.0001 8.0232C77.0001 8.3823 76.9482 8.69009 76.8445 8.92607C76.7408 9.17231 76.5956 9.35699 76.4089 9.51089C76.2222 9.65452 76.0044 9.75712 75.7451 9.81868C75.4858 9.88024 75.2058 9.91102 74.905 9.91102H73.8574V6.13538H74.905C75.2161 6.13538 75.4962 6.16616 75.7451 6.22772ZM76.3155 7.25371C76.2325 7.05877 76.1081 6.91513 75.9629 6.82279C75.8177 6.73045 75.6517 6.65863 75.465 6.62785C75.2783 6.59707 75.0813 6.58681 74.8842 6.58681H74.3968V9.46985H74.8842C75.0813 9.46985 75.2783 9.45959 75.465 9.42881C75.6517 9.39803 75.8177 9.33647 75.9629 9.23387C76.1081 9.13127 76.2222 8.98763 76.3155 8.80295C76.3985 8.61827 76.4504 8.36178 76.4504 8.03346C76.4504 7.69488 76.4089 7.43838 76.3155 7.25371Z" fill="white"/>
<path d="M49.0169 11.5732V14.8667H48.4775V11.0807H49.3799L50.3548 14.2305L51.3401 11.0807H52.2425V14.8564H51.7031V11.563L50.6452 14.8564H50.0748L49.0169 11.5732Z" fill="white"/>
<path d="M53.6323 13.379C53.6323 13.7483 53.705 14.0253 53.8605 14.1998C54.0057 14.3742 54.265 14.4665 54.628 14.4665C54.9911 14.4665 55.2504 14.3639 55.4059 14.169C55.5615 13.974 55.6341 13.6868 55.6341 13.3174V11.0807H56.1734V13.2764C56.1734 13.5534 56.1423 13.7996 56.0905 14.0048C56.0386 14.21 55.9453 14.3844 55.8208 14.5178C55.6963 14.6512 55.5408 14.7538 55.3437 14.8256C55.1466 14.8974 54.9081 14.9282 54.628 14.9282C54.3688 14.9282 54.1302 14.8974 53.9435 14.8461C53.7464 14.7846 53.5909 14.6922 53.4664 14.5691C53.3419 14.446 53.2486 14.2818 53.1864 14.0766C53.1241 13.8714 53.093 13.6252 53.093 13.3277V11.0807H53.6323V13.379V13.379Z" fill="white"/>
<path d="M56.9927 11.5835C57.0757 11.4501 57.1898 11.3475 57.3246 11.2654C57.4594 11.1833 57.6046 11.1218 57.7706 11.0807C57.9365 11.0397 58.0921 11.0192 58.2477 11.0192C58.424 11.0192 58.59 11.0397 58.7455 11.0807C58.9011 11.1218 59.0463 11.1833 59.1811 11.2654C59.3056 11.3475 59.4197 11.4603 59.513 11.5835C59.6064 11.7168 59.6686 11.8707 59.7101 12.0452H59.1915C59.1604 11.9323 59.1085 11.8502 59.0463 11.7681C58.9841 11.6861 58.9011 11.6348 58.8181 11.5835C58.7352 11.5322 58.6314 11.5014 58.5381 11.4809C58.4448 11.4603 58.341 11.4501 58.2477 11.4501C58.1751 11.4501 58.0921 11.4603 57.9988 11.4809C57.9054 11.5014 57.8121 11.5322 57.7291 11.5732C57.6461 11.6142 57.5735 11.6758 57.5217 11.7476C57.4698 11.8194 57.4387 11.9118 57.4387 12.0144C57.4387 12.1785 57.5009 12.3119 57.615 12.4043C57.7291 12.4966 57.8847 12.5582 58.061 12.5992L58.507 12.7018C58.6522 12.7326 58.8078 12.7736 58.953 12.8147C59.1086 12.866 59.2434 12.9275 59.3678 13.0096C59.4923 13.0917 59.596 13.1943 59.679 13.3276C59.762 13.4508 59.7931 13.6149 59.7931 13.8099C59.7931 13.9945 59.7516 14.1587 59.6686 14.3023C59.5856 14.446 59.4819 14.5588 59.3471 14.6614C59.2123 14.764 59.0567 14.8256 58.8804 14.8769C58.704 14.9282 58.5174 14.9487 58.3307 14.9487C58.1025 14.9487 57.9054 14.9179 57.7187 14.8564C57.532 14.7948 57.3765 14.7127 57.2416 14.6101C57.1068 14.4973 57.0031 14.3742 56.9201 14.2203C56.8371 14.0664 56.7853 13.8919 56.7542 13.7073H57.2831C57.335 13.9638 57.4491 14.169 57.6254 14.3023C57.8017 14.4357 58.0403 14.5075 58.341 14.5075C58.6314 14.5075 58.8493 14.446 59.0048 14.3331C59.1604 14.21 59.233 14.0664 59.233 13.8714C59.233 13.7791 59.2123 13.6867 59.1708 13.6149C59.1293 13.5431 59.0774 13.4815 58.9945 13.4302C58.9219 13.3789 58.8285 13.3379 58.7352 13.2969C58.6314 13.2661 58.5277 13.2353 58.4033 13.2045L57.9262 13.1019C57.7913 13.0712 57.6669 13.0301 57.5424 12.9788C57.4179 12.9275 57.3039 12.8557 57.2001 12.7736C57.0964 12.6915 57.0238 12.5889 56.9616 12.4761C56.8994 12.3632 56.8682 12.2196 56.8682 12.0657C56.8579 11.8707 56.8994 11.7168 56.9927 11.5835Z" fill="white"/>
<path d="M60.405 14.8667V11.0807H60.9443V14.8564H60.405V14.8667Z" fill="white"/>
<path d="M64.8545 14.21C64.7508 14.3639 64.6367 14.4973 64.4915 14.6101C64.3463 14.7127 64.1804 14.7948 64.0041 14.8564C63.8174 14.9077 63.6203 14.9385 63.4129 14.9385C63.1328 14.9385 62.8943 14.8872 62.6765 14.7948C62.4587 14.7025 62.2823 14.5588 62.1268 14.3844C61.9816 14.21 61.8675 14.0048 61.7845 13.7688C61.7119 13.5328 61.6704 13.2661 61.6704 12.9788C61.6704 12.6915 61.7119 12.4248 61.7949 12.1785C61.8778 11.9323 62.0023 11.7374 62.1579 11.5629C62.3135 11.3885 62.5002 11.2654 62.718 11.1628C62.9358 11.0602 63.1847 11.0192 63.4544 11.0192C63.6514 11.0192 63.8381 11.0499 64.0144 11.1012C64.1907 11.1628 64.3463 11.2449 64.4915 11.3475C64.6264 11.4603 64.7508 11.5835 64.8442 11.7476C64.9375 11.9015 65.0101 12.0862 65.0516 12.2914H64.533C64.5019 12.1683 64.4604 12.0657 64.3982 11.9631C64.336 11.8605 64.2634 11.7784 64.17 11.7066C64.0767 11.6348 63.9729 11.5732 63.8485 11.5322C63.724 11.4911 63.5892 11.4706 63.4336 11.4706C63.2677 11.4706 63.1017 11.5014 62.9565 11.5629C62.8113 11.6245 62.6868 11.7271 62.5728 11.8502C62.4587 11.9733 62.3757 12.1375 62.3135 12.3222C62.2512 12.5069 62.2201 12.7223 62.2201 12.9685C62.2201 13.2045 62.2512 13.42 62.3135 13.6149C62.3757 13.7996 62.4587 13.9638 62.5624 14.0971C62.6765 14.2305 62.8009 14.3229 62.9461 14.3947C63.0913 14.4665 63.2573 14.4973 63.4336 14.4973C63.7448 14.4973 63.9833 14.4255 64.17 14.2716C64.3567 14.1177 64.4812 13.9227 64.533 13.6765H65.0516C65.0309 13.8714 64.9583 14.0561 64.8545 14.21Z" fill="white"/>
</g>
<defs>
<clipPath id="clip0">
<rect width="77" height="30" fill="white"/>
</clipPath>
</defs>
</svg>
