<svg width="113" height="56" viewBox="0 0 113 56" fill="none" xmlns="http://www.w3.org/2000/svg">
<g clip-path="url(#clip0)">
<path d="M42.4357 51C39.2241 50.8646 36.3626 49.3448 34.9166 45.974C31.0048 36.8701 27.1692 27.7511 23.4248 18.5869C21.6288 14.1929 23.8358 9.4077 28.2042 7.64709C32.4508 5.93164 37.4585 7.79757 39.3002 12.0712C43.2272 21.1601 47.0933 30.2791 50.792 39.4583C53.0599 45.0411 48.8437 51.0151 42.4357 51Z" fill="black"/>
<path d="M19.6499 50.9994C16.4231 50.879 13.5616 49.3441 12.1004 45.9884C8.2038 36.8845 4.36814 27.7655 0.623797 18.5862C-1.17227 14.1923 1.03476 9.40704 5.40316 7.63139C9.64979 5.90088 14.6575 7.76682 16.5144 12.0404C20.4566 21.1745 24.3532 30.3386 28.0366 39.578C30.2437 45.1157 25.9818 50.9994 19.6499 50.9994Z" fill="black"/>
<path d="M56.7892 30.5795C53.4711 30.4742 50.6857 28.8791 49.1179 25.5084C48.0677 23.2512 47.124 20.9489 46.2412 18.6315C44.5516 14.1924 46.6065 9.46735 50.9596 7.66161C55.1758 5.901 60.1074 7.76694 62.0861 11.9803C63.2125 14.3579 64.2475 16.7957 65.1303 19.2786C67.109 24.7861 63.0298 30.5344 56.7892 30.5795Z" fill="black"/>
<path d="M75.8 8.73047H76.6372L75.2369 14.2681H74.2779L73.1668 9.70858L72.1014 14.2681H71.1424L69.7117 8.73047H70.5793L71.6599 13.3953L72.695 8.73047H73.6234L74.7346 13.3953L75.8 8.73047Z" fill="black"/>
<path d="M79.4227 8.73047L81.5384 14.2681H80.686L80.2446 13.0643H77.6571L77.2156 14.2681H76.4089L78.4942 8.73047H79.4227ZM79.9859 12.4022L78.9356 9.51296L77.9006 12.4022H79.9859Z" fill="black"/>
<path d="M84.2019 11.9357H83.9889H82.9995V14.2681H82.208V8.73047H83.9889C84.3237 8.73047 84.6434 8.74552 84.9325 8.79066C85.2217 8.8358 85.4653 8.91104 85.6784 9.03143C85.8915 9.15181 86.0437 9.31734 86.1654 9.52801C86.2872 9.73868 86.3329 10.0095 86.3329 10.3406C86.3329 10.777 86.2263 11.108 86.0285 11.3488C85.8306 11.5745 85.5566 11.74 85.2065 11.8303L86.5155 14.2982H85.6327L84.415 11.9507C84.3389 11.9357 84.2628 11.9357 84.2019 11.9357ZM82.9995 11.2736H84.0497C84.2628 11.2736 84.4455 11.2585 84.6281 11.2435C84.8108 11.2284 84.963 11.1833 85.1 11.1231C85.237 11.0629 85.3283 10.9576 85.4044 10.8372C85.4805 10.7168 85.5109 10.5362 85.5109 10.3255C85.5109 10.1149 85.4805 9.9343 85.4044 9.81392C85.3283 9.69353 85.2217 9.5882 85.1 9.52801C84.9782 9.46782 84.8108 9.42267 84.6281 9.40762C84.4455 9.39258 84.2628 9.37753 84.0497 9.37753H82.9995V11.2736Z" fill="black"/>
<path d="M88.4182 9.54305V14.2831H87.6267V8.73047H88.7835L91.3558 13.4555V8.73047H92.1473V14.2681H90.9905L88.4182 9.54305Z" fill="black"/>
<path d="M97.2919 8.73047V9.40762H94.2629V11.093H97.1092V11.7701H94.2629V13.606H97.2919V14.2831H93.4714V8.73047H97.2919Z" fill="black"/>
<path d="M100.23 11.9357H100.017H99.0273V14.2681H98.2358V8.73047H100.017C100.352 8.73047 100.671 8.74552 100.96 8.79066C101.25 8.8358 101.493 8.91104 101.706 9.03143C101.919 9.15181 102.072 9.31734 102.193 9.52801C102.315 9.73868 102.361 10.0095 102.361 10.3406C102.361 10.777 102.254 11.108 102.056 11.3488C101.858 11.5745 101.584 11.74 101.234 11.8303L102.543 14.2982H101.661L100.443 11.9507C100.382 11.9357 100.306 11.9357 100.23 11.9357ZM99.0273 11.2736H100.078C100.291 11.2736 100.473 11.2585 100.656 11.2435C100.839 11.2284 100.991 11.1833 101.128 11.1231C101.265 11.0629 101.356 10.9576 101.432 10.8372C101.508 10.7168 101.539 10.5362 101.539 10.3255C101.539 10.1149 101.508 9.9343 101.432 9.81392C101.356 9.69353 101.25 9.5882 101.128 9.52801C101.006 9.46782 100.839 9.42267 100.656 9.40762C100.473 9.39258 100.291 9.37753 100.078 9.37753H99.0273V11.2736Z" fill="black"/>
<path d="M73.1517 19.2042H72.9386H71.9492V21.5366H71.1577V15.999H72.9386C73.2734 15.999 73.5931 16.0141 73.8823 16.0592C74.1715 16.1044 74.415 16.1796 74.6281 16.3C74.8412 16.4204 74.9934 16.5859 75.1152 16.7966C75.2369 17.0072 75.2826 17.2781 75.2826 17.6091C75.2826 18.0455 75.176 18.3766 74.9782 18.6174C74.7803 18.8431 74.5063 19.0086 74.1562 19.0989L75.4652 21.5667H74.5824L73.3648 19.2193C73.2886 19.2042 73.2125 19.2042 73.1517 19.2042ZM71.934 18.5421H72.9842C73.1973 18.5421 73.38 18.5271 73.5626 18.512C73.7453 18.497 73.8975 18.4518 74.0345 18.3916C74.1715 18.3314 74.2628 18.2261 74.3389 18.1057C74.415 17.9853 74.4454 17.8048 74.4454 17.5941C74.4454 17.3834 74.415 17.2029 74.3389 17.0825C74.2628 16.9621 74.1562 16.8568 74.0345 16.7966C73.9127 16.7364 73.7453 16.6912 73.5626 16.6762C73.38 16.6611 73.1973 16.6461 72.9842 16.6461H71.934V18.5421Z" fill="black"/>
<path d="M80.2294 15.999V16.6762H77.2004V18.3615H80.0467V19.0387H77.2004V20.8745H80.2294V21.5517H76.4089V15.999H80.2294Z" fill="black"/>
<path d="M85.572 20.5734C85.4198 20.7992 85.2523 20.9948 85.0393 21.1603C84.8262 21.3108 84.5826 21.4312 84.3239 21.5215C84.0499 21.5967 83.7607 21.6418 83.4563 21.6418C83.0453 21.6418 82.6952 21.5666 82.3756 21.4312C82.056 21.2957 81.7972 21.0851 81.5689 20.8293C81.3558 20.5734 81.1884 20.2725 81.0666 19.9264C80.96 19.5803 80.8992 19.189 80.8992 18.7677C80.8992 18.3464 80.9601 17.9551 81.0818 17.594C81.2036 17.2328 81.3862 16.9469 81.6146 16.6911C81.8429 16.4353 82.1168 16.2547 82.4365 16.1042C82.7561 15.9537 83.1214 15.8936 83.5172 15.8936C83.8064 15.8936 84.0803 15.9387 84.3391 16.0139C84.5978 16.1042 84.8262 16.2246 85.0393 16.3751C85.2371 16.5406 85.4198 16.7212 85.5568 16.962C85.6937 17.1877 85.8003 17.4585 85.8612 17.7595H85.1001C85.0545 17.5789 84.9936 17.4284 84.9023 17.278C84.8109 17.1275 84.7044 17.0071 84.5674 16.9018C84.4304 16.7964 84.2782 16.7061 84.0956 16.6459C83.9129 16.5858 83.715 16.5557 83.4867 16.5557C83.2432 16.5557 82.9997 16.6008 82.7866 16.6911C82.5735 16.7814 82.3908 16.9319 82.2234 17.1124C82.056 17.293 81.9342 17.5338 81.8429 17.8046C81.7515 18.0755 81.7059 18.3915 81.7059 18.7527C81.7059 19.0988 81.7515 19.4148 81.8429 19.7007C81.9342 19.9715 82.056 20.2123 82.2082 20.4079C82.3756 20.6035 82.5582 20.739 82.7713 20.8443C82.9844 20.9496 83.228 20.9948 83.4867 20.9948C83.9433 20.9948 84.2934 20.8895 84.5674 20.6637C84.8414 20.438 85.024 20.1521 85.1001 19.791H85.8612C85.8307 20.0769 85.7242 20.3477 85.572 20.5734Z" fill="black"/>
<path d="M91.6298 19.9113C91.5081 20.2574 91.3254 20.5734 91.0971 20.8142C90.8688 21.07 90.5948 21.2656 90.26 21.4161C89.9403 21.5516 89.575 21.6268 89.1641 21.6268C88.7531 21.6268 88.403 21.5516 88.0682 21.4161C87.7485 21.2807 87.4593 21.07 87.231 20.8142C87.0027 20.5584 86.82 20.2574 86.6983 19.9113C86.5765 19.5652 86.5156 19.174 86.5156 18.7526C86.5156 18.3313 86.5765 17.9551 86.6983 17.594C86.82 17.2479 87.0027 16.9469 87.231 16.6911C87.4593 16.4353 87.7333 16.2397 88.0682 16.1042C88.3878 15.9688 88.7531 15.8936 89.1641 15.8936C89.575 15.8936 89.9251 15.9688 90.26 16.1042C90.5796 16.2397 90.8688 16.4503 91.0971 16.6911C91.3254 16.9469 91.5081 17.2479 91.6298 17.594C91.7516 17.9401 91.8125 18.3313 91.8125 18.7526C91.8125 19.174 91.7516 19.5652 91.6298 19.9113ZM87.4745 19.7157C87.5659 19.9866 87.7029 20.2273 87.8551 20.4079C88.0073 20.5885 88.2051 20.739 88.4335 20.8293C88.6618 20.9195 88.8901 20.9797 89.1488 20.9797C89.4076 20.9797 89.6359 20.9346 89.8642 20.8293C90.0925 20.739 90.2904 20.5885 90.4426 20.4079C90.61 20.2123 90.7318 19.9866 90.8231 19.7157C90.9145 19.4449 90.9601 19.1288 90.9601 18.7677C90.9601 18.4065 90.9145 18.0905 90.8231 17.8197C90.7318 17.5488 90.5948 17.3081 90.4426 17.1275C90.2752 16.9469 90.0925 16.7964 89.8642 16.7061C89.6359 16.6159 89.4076 16.5557 89.1488 16.5557C88.8901 16.5557 88.6465 16.6008 88.4335 16.7061C88.2051 16.7964 88.0225 16.9469 87.8551 17.1275C87.6876 17.3081 87.5659 17.5488 87.4745 17.8197C87.3832 18.0905 87.3375 18.4065 87.3375 18.7677C87.3375 19.1288 87.3832 19.4298 87.4745 19.7157Z" fill="black"/>
<path d="M94.8719 19.2042H94.6588H93.6694V21.5366H92.8779V15.999H94.6588C94.9936 15.999 95.3133 16.0141 95.6025 16.0592C95.8917 16.1044 96.1352 16.1796 96.3483 16.3C96.5614 16.4204 96.7136 16.5859 96.8354 16.7966C96.9571 17.0072 97.0028 17.2781 97.0028 17.6091C97.0028 18.0455 96.8962 18.3766 96.6984 18.6174C96.5005 18.8431 96.2265 19.0086 95.8764 19.0989L97.1854 21.5667H96.3026L95.085 19.2193C95.0089 19.2042 94.9327 19.2042 94.8719 19.2042ZM93.6542 18.5421H94.7044C94.9175 18.5421 95.1002 18.5271 95.2828 18.512C95.4655 18.497 95.6177 18.4518 95.7547 18.3916C95.8917 18.3314 95.983 18.2261 96.0591 18.1057C96.1352 17.9853 96.1656 17.8048 96.1656 17.5941C96.1656 17.3834 96.1352 17.2029 96.0591 17.0825C95.983 16.9621 95.8764 16.8568 95.7547 16.7966C95.6329 16.7364 95.4655 16.6912 95.2828 16.6762C95.1002 16.6611 94.9175 16.6461 94.7044 16.6461H93.6542V18.5421Z" fill="black"/>
<path d="M100.899 16.1345C101.28 16.2247 101.6 16.3752 101.873 16.5859C102.147 16.7966 102.361 17.0825 102.513 17.4436C102.665 17.8048 102.741 18.2412 102.741 18.7678C102.741 19.2945 102.665 19.7459 102.513 20.092C102.361 20.4532 102.147 20.7241 101.873 20.9498C101.6 21.1604 101.28 21.3109 100.899 21.4012C100.519 21.4915 100.108 21.5366 99.6665 21.5366H98.1292V15.999H99.6665C100.123 15.999 100.534 16.0442 100.899 16.1345ZM101.737 17.6392C101.615 17.3533 101.432 17.1427 101.219 17.0072C101.006 16.8568 100.762 16.7665 100.488 16.7213C100.214 16.6762 99.9252 16.6611 99.636 16.6611H98.9206V20.8896H99.636C99.9252 20.8896 100.214 20.8745 100.488 20.8294C100.762 20.7842 101.006 20.694 101.219 20.5435C101.432 20.393 101.6 20.1823 101.737 19.9115C101.873 19.6406 101.934 19.2644 101.934 18.7829C101.934 18.2863 101.858 17.9101 101.737 17.6392Z" fill="black"/>
<path d="M107.46 15.999V16.6762H104.431V18.3615H107.277V19.0387H104.431V20.8745H107.46V21.5517H103.639V15.999H107.46Z" fill="black"/>
<path d="M111.158 16.1345C111.539 16.2247 111.858 16.3752 112.132 16.5859C112.406 16.7966 112.619 17.0825 112.772 17.4436C112.924 17.8048 113 18.2412 113 18.7678C113 19.2945 112.924 19.7459 112.772 20.092C112.619 20.4532 112.406 20.7241 112.132 20.9498C111.858 21.1604 111.539 21.3109 111.158 21.4012C110.778 21.4915 110.367 21.5366 109.925 21.5366H108.388V15.999H109.925C110.382 15.999 110.793 16.0442 111.158 16.1345ZM111.995 17.6392C111.874 17.3533 111.691 17.1427 111.478 17.0072C111.265 16.8718 111.021 16.7665 110.747 16.7213C110.473 16.6762 110.184 16.6611 109.895 16.6611H109.179V20.8896H109.895C110.184 20.8896 110.473 20.8745 110.747 20.8294C111.021 20.7842 111.265 20.694 111.478 20.5435C111.691 20.393 111.858 20.1823 111.995 19.9115C112.117 19.6406 112.193 19.2644 112.193 18.7829C112.193 18.2863 112.132 17.9101 111.995 17.6392Z" fill="black"/>
<path d="M71.9338 23.9752V28.8056H71.1423V23.2529H72.4666L73.8973 27.8726L75.3433 23.2529H76.6675V28.7905H75.876V23.9602L74.3235 28.7905H73.4863L71.9338 23.9752Z" fill="black"/>
<path d="M78.707 26.6237C78.707 27.1654 78.8136 27.5717 79.0419 27.8275C79.255 28.0833 79.6355 28.2187 80.1682 28.2187C80.701 28.2187 81.0815 28.0683 81.3098 27.7823C81.5381 27.4964 81.6447 27.0751 81.6447 26.5334V23.2529H82.4361V26.4732C82.4361 26.8795 82.3905 27.2406 82.3144 27.5416C82.2383 27.8425 82.1013 28.0983 81.9186 28.294C81.736 28.4896 81.5077 28.6401 81.2185 28.7454C80.9293 28.8507 80.5792 28.8959 80.1682 28.8959C79.7877 28.8959 79.4376 28.8507 79.1636 28.7755C78.8744 28.6852 78.6461 28.5498 78.4635 28.3692C78.2808 28.1886 78.1438 27.9479 78.0525 27.6469C77.9612 27.346 77.9155 26.9848 77.9155 26.5484V23.2529H78.707V26.6237Z" fill="black"/>
<path d="M83.6387 23.9897C83.7604 23.7941 83.9279 23.6436 84.1257 23.5233C84.3236 23.4029 84.5367 23.3126 84.7802 23.2524C85.0238 23.1922 85.2521 23.1621 85.4804 23.1621C85.7391 23.1621 85.9827 23.1922 86.211 23.2524C86.4393 23.3126 86.6524 23.4029 86.8503 23.5233C87.0329 23.6436 87.2003 23.8092 87.3373 23.9897C87.4743 24.1854 87.5656 24.4111 87.6265 24.6669H86.8655C86.8198 24.5014 86.7437 24.381 86.6524 24.2606C86.5611 24.1402 86.4393 24.065 86.3175 23.9897C86.1958 23.9145 86.0436 23.8694 85.9066 23.8393C85.7696 23.8092 85.6174 23.7941 85.4804 23.7941C85.3738 23.7941 85.2521 23.8092 85.1151 23.8393C84.9781 23.8694 84.8411 23.9145 84.7193 23.9747C84.5976 24.0349 84.491 24.1252 84.4149 24.2305C84.3388 24.3358 84.2932 24.4713 84.2932 24.6218C84.2932 24.8625 84.3845 25.0581 84.5519 25.1936C84.7193 25.329 84.9476 25.4193 85.2064 25.4795L85.8609 25.63C86.074 25.6751 86.3023 25.7353 86.5154 25.7955C86.7437 25.8707 86.9416 25.961 87.1242 26.0814C87.3069 26.2018 87.4591 26.3523 87.5809 26.5479C87.7026 26.7285 87.7483 26.9692 87.7483 27.2551C87.7483 27.526 87.6874 27.7668 87.5656 27.9774C87.4439 28.1881 87.2917 28.3536 87.0938 28.5041C86.8959 28.6546 86.6676 28.7449 86.4089 28.8201C86.1501 28.8953 85.8761 28.9254 85.6022 28.9254C85.2673 28.9254 84.9781 28.8803 84.7041 28.79C84.4301 28.6997 84.2018 28.5793 84.004 28.4289C83.8061 28.2633 83.6539 28.0828 83.5321 27.857C83.4103 27.6313 83.3342 27.3755 83.2886 27.1047H84.0648C84.1409 27.4808 84.3084 27.7818 84.5671 27.9774C84.8259 28.173 85.176 28.2784 85.6174 28.2784C86.0436 28.2784 86.3632 28.1881 86.5915 28.0226C86.8198 27.842 86.9264 27.6313 86.9264 27.3454C86.9264 27.21 86.8959 27.0746 86.835 26.9692C86.7742 26.8639 86.6981 26.7736 86.5763 26.6984C86.4697 26.6231 86.3328 26.5629 86.1958 26.5027C86.0436 26.4576 85.8913 26.4124 85.7087 26.3673L85.0085 26.2168C84.8107 26.1717 84.628 26.1115 84.4454 26.0363C84.2627 25.961 84.0953 25.8557 83.9431 25.7353C83.7909 25.6149 83.6843 25.4644 83.593 25.2989C83.5017 25.1334 83.456 24.9227 83.456 24.697C83.4408 24.4111 83.5017 24.1854 83.6387 23.9897Z" fill="black"/>
<path d="M88.6465 28.8056V23.2529H89.438V28.7905H88.6465V28.8056Z" fill="black"/>
<path d="M95.1762 27.842C95.024 28.0677 94.8566 28.2633 94.6435 28.4289C94.4304 28.5793 94.1869 28.6997 93.9281 28.79C93.6541 28.8653 93.365 28.9104 93.0605 28.9104C92.6496 28.9104 92.2995 28.8352 91.9798 28.6997C91.6602 28.5643 91.4015 28.3536 91.1731 28.0978C90.96 27.842 90.7926 27.541 90.6709 27.1949C90.5643 26.8488 90.5034 26.4576 90.5034 26.0363C90.5034 25.6149 90.5643 25.2237 90.6861 24.8625C90.8078 24.5014 90.9905 24.2155 91.2188 23.9596C91.4471 23.7038 91.7211 23.5233 92.0407 23.3728C92.3604 23.2223 92.7257 23.1621 93.1214 23.1621C93.4106 23.1621 93.6846 23.2073 93.9433 23.2825C94.2021 23.3728 94.4304 23.4932 94.6435 23.6436C94.8414 23.8092 95.024 23.9897 95.161 24.2305C95.298 24.4562 95.4045 24.7271 95.4654 25.028H94.7044C94.6587 24.8475 94.5978 24.697 94.5065 24.5465C94.4152 24.396 94.3086 24.2757 94.1717 24.1703C94.0347 24.065 93.8825 23.9747 93.6998 23.9145C93.5172 23.8543 93.3193 23.8242 93.091 23.8242C92.8474 23.8242 92.6039 23.8694 92.3908 23.9596C92.1777 24.0499 91.9951 24.2004 91.8276 24.381C91.6602 24.5616 91.5384 24.8023 91.4471 25.0732C91.3558 25.3441 91.3101 25.6601 91.3101 26.0212C91.3101 26.3673 91.3558 26.6833 91.4471 26.9692C91.5384 27.2401 91.6602 27.4809 91.8124 27.6765C91.9798 27.8721 92.1625 28.0075 92.3756 28.1129C92.5887 28.2182 92.8322 28.2633 93.091 28.2633C93.5476 28.2633 93.8977 28.158 94.1717 27.9323C94.4456 27.7066 94.6283 27.4207 94.7044 27.0595H95.4654C95.435 27.3454 95.3284 27.6163 95.1762 27.842Z" fill="black"/>
</g>
<defs>
<clipPath id="clip0">
<rect width="113" height="56" fill="white"/>
</clipPath>
</defs>
</svg>
