<svg width="150" height="33" viewBox="0 0 150 33" fill="none" xmlns="http://www.w3.org/2000/svg">
<g clip-path="url(#clip0)">
<path d="M26.8771 6.37731C26.2318 4.84536 24.9422 3.68246 23.3727 3.20918C22.307 2.94087 21.2091 2.82442 20.1002 2.86345L7.62001 2.86325C6.52216 2.82442 5.42434 2.94087 4.37251 3.20534C2.78533 3.68361 1.49326 4.85101 0.858007 6.36567C0.448105 7.60223 0.267712 8.90423 0.326164 10.2208L0.325846 22.7938C0.267705 24.0961 0.448098 25.3982 0.849461 26.6119C1.49327 28.1494 2.78534 29.3168 4.3586 29.7912C5.42434 30.0595 6.52217 30.176 7.63107 30.1369L20.1112 30.1371C21.2091 30.176 22.3069 30.0595 23.3587 29.795C24.9459 29.3168 26.238 28.1494 26.8732 26.6347C27.2831 25.3982 27.4635 24.0961 27.4051 22.7795L27.4054 10.2066C27.4634 8.90832 27.2843 7.61041 26.8771 6.37731Z" fill="white" stroke="#E5E5E5"/>
<path d="M13.6202 27.2622C18.3531 27.2622 22.1899 23.4036 22.1899 18.6438C22.1899 13.884 18.3531 10.0254 13.6202 10.0254C8.88731 10.0254 5.05054 13.884 5.05054 18.6438C5.05054 23.4036 8.88731 27.2622 13.6202 27.2622Z" fill="#FFCC00"/>
<path d="M17.9113 9.85889L17.9113 17.9215L17.8924 17.9279C17.8924 17.9313 17.8924 17.9347 17.8924 17.9382C17.8924 18.7268 17.8356 19.4624 17.7294 19.8378C17.2187 21.6433 15.5667 22.9529 13.6076 22.9529C11.2412 22.9529 9.3479 21.03 9.3479 18.6501C9.3479 16.2702 11.2412 14.3472 13.6076 14.3472C14.7226 14.3472 15.7382 14.7755 16.5004 15.4775C16.7495 15.7068 16.9715 15.9653 17.1611 16.2477C17.1085 15.995 17.0567 15.6771 17.0567 15.4053V9.15675V5.71191L22.6338 7.43054V11.3227L17.9113 9.85889Z" fill="#FF3333"/>
<path fill-rule="evenodd" clip-rule="evenodd" d="M42.101 18.4295H40.4875L37.4119 25.3849H35.1682L38.5464 17.9472C36.9581 17.1349 35.8993 15.6626 35.8993 12.9464C35.8993 9.13871 38.2943 7.23486 41.143 7.23486H44.0422V25.3849H42.101V18.4295ZM42.101 16.8049V8.88486H41.0674C39.5043 8.88486 37.9917 9.92563 37.9917 12.9464C37.9917 15.8656 39.3783 16.8049 41.0674 16.8049H42.101ZM63.5044 23.7602V27.8979H61.7396V25.3849H56.2943V27.8979H54.5296V23.7602H55.3111C56.4707 21.0441 56.5968 17.0841 56.5968 13.6826V12.591H62.4959V23.7602H63.5044ZM72.0506 24.5218C71.2438 25.1564 70.185 25.5626 68.9245 25.5626C66.3027 25.5626 64.6892 23.4556 64.6892 19.521C64.6892 15.4087 65.8237 12.4133 68.5212 12.4133C70.6388 12.4133 72.0254 14.0126 72.0254 18.3533V19.4449H66.7312C66.7312 22.3387 67.538 23.8618 69.101 23.8618C70.2102 23.8618 71.0926 23.3541 71.5968 22.9987L72.0506 24.5218ZM51.4539 12.591H53.3951V25.3849H51.4539V19.6479H48.5296V25.3849H46.5632V12.591H48.5296V18.0233H51.4539V12.591ZM79.3615 25.3849L76.0086 19.0133V25.3849H74.0422V12.591H76.0086V18.5056L79.059 12.591H81.0506L77.8993 18.6072L81.5044 25.3849H79.3615ZM86.1178 25.5626C83.3951 25.5626 81.7565 23.3541 81.7565 18.9879C81.7565 14.9772 83.2943 12.4133 86.2691 12.4133C87.4035 12.4133 88.059 12.7179 88.6136 13.0733L88.3363 14.9518C87.8069 14.4949 87.0506 14.0633 86.2438 14.0633C84.8321 14.0633 83.8237 15.6626 83.8237 18.8864C83.8237 22.0849 84.58 23.9126 86.1682 23.9126C87.1262 23.9126 87.8573 23.5318 88.3111 23.1256L88.7649 24.5979C88.0842 25.1818 87.2775 25.5626 86.1178 25.5626ZM60.5548 23.7602V14.1902H58.3615V14.4187C58.3615 17.1095 58.2354 21.0441 57.1766 23.7602H60.5548ZM68.5212 14.0379C67.3111 14.0379 66.8825 15.5356 66.7565 17.8202H70.0086C70.0086 15.6372 69.6556 14.0379 68.5212 14.0379ZM95.9749 9.26563C95.9749 10.2556 95.9497 11.7279 95.8993 12.9718L95.3699 25.3849H94.3363L95.1178 7.23486H96.5044L99.2018 18.4295C99.4287 19.3179 99.5548 20.181 99.6304 20.9426H99.6808C99.7565 20.181 99.9077 19.3179 100.135 18.4295L102.908 7.23486H104.319L105.101 25.3849H103.891L103.361 12.8702C103.286 11.4487 103.311 10.3572 103.311 9.24025H103.235C103.084 10.3826 102.908 11.4487 102.63 12.5149L100.109 22.5418H99.1262L96.6304 12.5149C96.3783 11.5249 96.1766 10.5095 96.0506 9.26563H95.9749ZM108 29.4464C107.723 29.4464 107.521 29.421 107.345 29.3956L107.219 28.2787C107.42 28.3295 107.672 28.3802 108 28.3802C108.857 28.3802 109.462 27.5426 109.84 26.121L109.941 25.7402L106.79 12.591H107.975L109.992 20.9426C110.219 21.9072 110.395 22.8464 110.521 23.8364H110.597C110.773 22.821 110.975 21.8818 111.202 20.9426L113.168 12.591H114.227L110.975 26.0449C110.546 27.771 109.79 29.4464 108 29.4464ZM118.235 25.6387C116.193 25.6387 115.21 24.2172 115.21 24.2172L115.614 23.2272C115.614 23.2272 116.471 24.5979 118.21 24.5979C119.521 24.5979 120.58 23.6587 120.58 21.8056C120.58 20.2064 119.798 19.1149 117.908 19.1149H116.849V18.1502H117.782C119.244 18.1502 120.277 17.2618 120.277 15.5102C120.277 14.2156 119.597 13.3779 118.362 13.3779C117.202 13.3779 116.37 14.0379 115.815 14.8249L115.513 13.6826C116.067 12.9464 117 12.3372 118.362 12.3372C120.353 12.3372 121.412 13.6064 121.412 15.4849C121.412 16.7287 120.908 17.871 119.521 18.5564C121.109 19.1402 121.79 20.3841 121.79 21.7802C121.79 24.2679 120.177 25.6387 118.235 25.6387ZM123.883 25.3849V12.591H125.067V17.3379H126C128.42 17.3379 129.983 18.6579 129.983 21.3233C129.983 24.0395 128.319 25.3849 125.925 25.3849H123.883ZM132.504 12.591V25.3849H131.345V12.591H132.504ZM125.95 18.2772H125.067V24.4456H125.824C127.614 24.4456 128.824 23.5572 128.824 21.3487C128.824 19.191 127.765 18.2772 125.95 18.2772ZM136.513 18.7595V25.3849H135.328V12.591H136.513V18.6072L140.773 12.591H141.933L137.748 18.531L142.235 25.3849H140.925L136.513 18.7595ZM146.168 24.6741C147.353 24.6741 148.185 23.5318 148.639 22.161V18.6326H147.277C145.185 18.6326 144.177 19.5972 144.177 21.831C144.177 23.6333 144.958 24.6741 146.168 24.6741ZM148.992 25.3849C148.891 25.0549 148.765 24.5726 148.689 23.6587C148.084 24.8772 147.177 25.6387 145.916 25.6387C144.202 25.6387 143.017 24.2679 143.017 21.9326C143.017 19.191 144.504 17.7695 147.252 17.7695H148.639V16.1702C148.639 14.2156 147.908 13.3779 146.521 13.3779C145.437 13.3779 144.454 13.8856 143.849 14.7741L143.521 13.6318C144.025 12.9718 145.084 12.3372 146.521 12.3372C148.614 12.3372 149.798 13.5049 149.798 16.0433V23.0241C149.798 23.9126 149.925 24.9026 150.076 25.3849H148.992Z" fill="#222222"/>
</g>
<defs>
<clipPath id="clip0">
<rect width="150" height="33" fill="white"/>
</clipPath>
</defs>
</svg>
